{
 "actions": [],
 "allow_rename": 1,
 "autoname": "field:type",
 "creation": "2022-07-07 14:21:19.760747",
 "doctype": "DocType",
 "editable_grid": 1,
 "engine": "InnoDB",
 "field_order": [
  "type"
 ],
 "fields": [
  {
   "allow_in_quick_entry": 1,
   "fieldname": "type",
   "fieldtype": "Data",
   "in_list_view": 1,
   "label": "Type",
   "unique": 1
  }
 ],
 "index_web_pages_for_search": 1,
 "links": [],
 "modified": "2022-07-07 16:17:39.974107",
 "modified_by": "Administrator",
 "module": "LEO CRM",
 "name": "Project Type",
 "naming_rule": "By fieldname",
 "owner": "Administrator",
 "permissions": [
  {
   "create": 1,
   "delete": 1,
   "email": 1,
   "export": 1,
   "print": 1,
   "read": 1,
   "report": 1,
   "role": "System Manager",
   "share": 1,
   "write": 1
  },
  {
   "create": 1,
   "delete": 1,
   "email": 1,
   "export": 1,
   "print": 1,
   "read": 1,
   "report": 1,
   "role": "PublicSpaces",
   "share": 1,
   "write": 1
  }
 ],
 "quick_entry": 1,
 "sort_field": "modified",
 "sort_order": "DESC",
 "states": []
}