{
 "actions": [],
 "allow_rename": 1,
 "autoname": "hash",
 "creation": "2022-07-07 13:50:43.232515",
 "doctype": "DocType",
 "editable_grid": 1,
 "engine": "InnoDB",
 "field_order": [
  "project_name",
  "column_break_2",
  "type",
  "section_break_4",
  "date_start",
  "column_break_6",
  "date_end",
  "section_break_8",
  "remarks",
  "status",
  "participants_tab",
  "people",
  "organisations",
  "organisations_display",
  "participants_display"
 ],
 "fields": [
  {
   "fieldname": "project_name",
   "fieldtype": "Data",
   "label": "Project Name",
   "reqd": 1
  },
  {
   "fieldname": "date_start",
   "fieldtype": "Date",
   "label": "Start Date"
  },
  {
   "fieldname": "date_end",
   "fieldtype": "Date",
   "label": "End Date"
  },
  {
   "fieldname": "remarks",
   "fieldtype": "Text Editor",
   "label": "Remarks"
  },
  {
   "fieldname": "status",
   "fieldtype": "Select",
   "in_filter": 1,
   "in_list_view": 1,
   "in_standard_filter": 1,
   "label": "Status",
   "options": "Not Started\nStarted\nFinished"
  },
  {
   "fieldname": "participants_tab",
   "fieldtype": "Tab Break",
   "label": "Participants"
  },
  {
   "fieldname": "column_break_2",
   "fieldtype": "Column Break"
  },
  {
   "fieldname": "type",
   "fieldtype": "Link",
   "in_list_view": 1,
   "label": "Type",
   "options": "Project Type"
  },
  {
   "fieldname": "section_break_4",
   "fieldtype": "Section Break"
  },
  {
   "fieldname": "column_break_6",
   "fieldtype": "Column Break"
  },
  {
   "fieldname": "section_break_8",
   "fieldtype": "Section Break"
  },
  {
   "fieldname": "people",
   "fieldtype": "Table",
   "label": "People",
   "options": "Project Person"
  },
  {
   "fieldname": "organisations",
   "fieldtype": "Table",
   "label": "Organisations",
   "options": "Project Organisation"
  },
  {
   "fieldname": "organisations_display",
   "fieldtype": "Data",
   "hidden": 1,
   "in_filter": 1,
   "in_global_search": 1,
   "in_list_view": 1,
   "in_preview": 1,
   "in_standard_filter": 1,
   "label": "Organisations"
  },
  {
   "fieldname": "participants_display",
   "fieldtype": "Data",
   "hidden": 1,
   "in_filter": 1,
   "in_global_search": 1,
   "in_list_view": 1,
   "in_preview": 1,
   "in_standard_filter": 1,
   "label": "Parrticipants"
  }
 ],
 "index_web_pages_for_search": 1,
 "links": [],
 "modified": "2022-09-22 10:43:33.094668",
 "modified_by": "Administrator",
 "module": "LEO CRM",
 "name": "Project",
 "naming_rule": "Random",
 "owner": "Administrator",
 "permissions": [
  {
   "create": 1,
   "delete": 1,
   "email": 1,
   "export": 1,
   "print": 1,
   "read": 1,
   "report": 1,
   "role": "System Manager",
   "share": 1,
   "write": 1
  },
  {
   "create": 1,
   "delete": 1,
   "email": 1,
   "export": 1,
   "print": 1,
   "read": 1,
   "report": 1,
   "role": "PublicSpaces",
   "select": 1,
   "share": 1,
   "write": 1
  }
 ],
 "quick_entry": 1,
 "show_title_field_in_link": 1,
 "sort_field": "modified",
 "sort_order": "DESC",
 "states": [],
 "title_field": "project_name",
 "track_changes": 1
}