{
 "charts": [],
 "content": "[{\"type\":\"header\",\"data\":{\"text\":\"<span class=\\\"h4\\\">CRM</span>\",\"col\":12}},{\"type\":\"shortcut\",\"data\":{\"shortcut_name\":\"New Conversation Log\",\"col\":3}},{\"type\":\"shortcut\",\"data\":{\"shortcut_name\":\"Create Contact Request\",\"col\":4}},{\"type\":\"shortcut\",\"data\":{\"shortcut_name\":\"New Lead\",\"col\":3}},{\"type\":\"spacer\",\"data\":{\"col\":12}},{\"type\":\"card\",\"data\":{\"card_name\":\"Network\",\"col\":4}},{\"type\":\"card\",\"data\":{\"card_name\":\"Project management\",\"col\":4}},{\"type\":\"card\",\"data\":{\"card_name\":\"Contracts\",\"col\":4}},{\"type\":\"quick_list\",\"data\":{\"quick_list_name\":\"Follow-up's en ToDo's\",\"col\":5}}]",
 "creation": "2022-07-04 11:02:40.352565",
 "docstatus": 0,
 "doctype": "Workspace",
 "for_user": "",
 "hide_custom": 0,
 "icon": "lock",
 "idx": 0,
 "label": "CRM",
 "links": [
  {
   "hidden": 0,
   "is_query_report": 0,
   "label": "Contracts",
   "link_count": 2,
   "onboard": 0,
   "type": "Card Break"
  },
  {
   "hidden": 0,
   "is_query_report": 0,
   "label": "Partnership Agreements",
   "link_count": 0,
   "link_to": "Partnership",
   "link_type": "DocType",
   "onboard": 0,
   "type": "Link"
  },
  {
   "hidden": 0,
   "is_query_report": 0,
   "label": "Leads",
   "link_count": 0,
   "link_to": "Lead",
   "link_type": "DocType",
   "onboard": 0,
   "type": "Link"
  },
  {
   "hidden": 0,
   "is_query_report": 0,
   "label": "Network",
   "link_count": 2,
   "onboard": 0,
   "type": "Card Break"
  },
  {
   "hidden": 0,
   "is_query_report": 0,
   "label": "Organisations",
   "link_count": 0,
   "link_to": "Organisation",
   "link_type": "DocType",
   "onboard": 0,
   "type": "Link"
  },
  {
   "hidden": 0,
   "is_query_report": 0,
   "label": "People",
   "link_count": 0,
   "link_to": "Person",
   "link_type": "DocType",
   "onboard": 0,
   "type": "Link"
  },
  {
   "hidden": 0,
   "is_query_report": 0,
   "label": "Project management",
   "link_count": 2,
   "onboard": 0,
   "type": "Card Break"
  },
  {
   "hidden": 0,
   "is_query_report": 0,
   "label": "Projects",
   "link_count": 0,
   "link_to": "Project",
   "link_type": "DocType",
   "onboard": 0,
   "type": "Link"
  },
  {
   "hidden": 0,
   "is_query_report": 0,
   "label": "Conversation Logs",
   "link_count": 0,
   "link_to": "Conversation Log",
   "link_type": "DocType",
   "onboard": 0,
   "type": "Link"
  }
 ],
 "modified": "2022-10-13 14:15:32.881152",
 "modified_by": "Administrator",
 "module": "LEO CRM",
 "name": "CRM",
 "owner": "Administrator",
 "parent_page": "",
 "public": 1,
 "quick_lists": [
  {
   "document_type": "ToDo",
   "label": "Follow-up's en ToDo's",
   "quick_list_filter": "{\"status\":[\"=\",\"Open\"]}"
  }
 ],
 "roles": [],
 "sequence_id": 1.0,
 "shortcuts": [
  {
   "color": "Grey",
   "doc_view": "New",
   "label": "New Conversation Log",
   "link_to": "Conversation Log",
   "type": "DocType"
  },
  {
   "color": "Grey",
   "doc_view": "New",
   "label": "Create Contact Request",
   "link_to": "Contact Request",
   "stats_filter": "{\"status\":[\"=\",\"Open\"]}",
   "type": "DocType"
  },
  {
   "color": "Grey",
   "doc_view": "New",
   "label": "New Lead",
   "link_to": "Lead",
   "type": "DocType"
  }
 ],
 "title": "CRM"
}