{
 "actions": [],
 "allow_import": 1,
 "allow_rename": 1,
 "autoname": "hash",
 "creation": "2022-07-01 16:26:06.490661",
 "doctype": "DocType",
 "document_type": "Other",
 "editable_grid": 1,
 "engine": "InnoDB",
 "field_order": [
  "org_name",
  "industry",
  "column_break_4",
  "website",
  "type",
  "section_break_4",
  "phone",
  "column_break_6",
  "email",
  "section2_section",
  "contacts",
  "section_break_14",
  "logo",
  "administrative_tab",
  "addressee",
  "department",
  "address",
  "address_2",
  "postcode",
  "city",
  "country",
  "organisation_details_section",
  "coc",
  "vat",
  "badges_tab",
  "badge_redirect_url",
  "domains"
 ],
 "fields": [
  {
   "fieldname": "contacts",
   "fieldtype": "Table",
   "label": "Contact Persons",
   "options": "Organisation Contact"
  },
  {
   "fieldname": "org_name",
   "fieldtype": "Data",
   "in_list_view": 1,
   "label": "Name",
   "reqd": 1
  },
  {
   "fieldname": "section2_section",
   "fieldtype": "Section Break",
   "label": "Contact"
  },
  {
   "fieldname": "website",
   "fieldtype": "Data",
   "label": "Website",
   "options": "URL"
  },
  {
   "fieldname": "phone",
   "fieldtype": "Data",
   "label": "Phone",
   "options": "Phone"
  },
  {
   "fieldname": "email",
   "fieldtype": "Data",
   "label": "E-Mail",
   "options": "Email"
  },
  {
   "fieldname": "organisation_details_section",
   "fieldtype": "Section Break",
   "label": "Organisation Details"
  },
  {
   "fieldname": "coc",
   "fieldtype": "Data",
   "label": "Chamber of Commerce"
  },
  {
   "fieldname": "vat",
   "fieldtype": "Data",
   "label": "VAT Number"
  },
  {
   "fieldname": "logo",
   "fieldtype": "Attach Image",
   "label": "Logo"
  },
  {
   "fieldname": "column_break_4",
   "fieldtype": "Column Break"
  },
  {
   "fieldname": "section_break_4",
   "fieldtype": "Section Break"
  },
  {
   "fieldname": "column_break_6",
   "fieldtype": "Column Break"
  },
  {
   "fieldname": "section_break_14",
   "fieldtype": "Section Break"
  },
  {
   "allow_in_quick_entry": 1,
   "fieldname": "industry",
   "fieldtype": "Table MultiSelect",
   "in_filter": 1,
   "in_standard_filter": 1,
   "label": "Industry",
   "options": "Organisation Industry"
  },
  {
   "fieldname": "type",
   "fieldtype": "Table MultiSelect",
   "label": "Partnership Type",
   "options": "Organisation Partnership Type"
  },
  {
   "fieldname": "administrative_tab",
   "fieldtype": "Tab Break",
   "label": "Administrative"
  },
  {
   "fieldname": "addressee",
   "fieldtype": "Data",
   "label": "Addressee"
  },
  {
   "fieldname": "department",
   "fieldtype": "Data",
   "label": "Department"
  },
  {
   "fieldname": "address",
   "fieldtype": "Data",
   "label": "Address"
  },
  {
   "fieldname": "address_2",
   "fieldtype": "Data",
   "label": "Address line 2"
  },
  {
   "fieldname": "postcode",
   "fieldtype": "Data",
   "label": "Postcode"
  },
  {
   "fieldname": "city",
   "fieldtype": "Data",
   "label": "City"
  },
  {
   "default": "Netherlands",
   "fieldname": "country",
   "fieldtype": "Link",
   "label": "Country",
   "options": "Country"
  },
  {
   "fieldname": "badges_tab",
   "fieldtype": "Tab Break",
   "label": "Badges"
  },
  {
   "fieldname": "domains",
   "fieldtype": "Table",
   "label": "Valid Badge Domains",
   "options": "Badge Domain"
  },
  {
   "fieldname": "badge_redirect_url",
   "fieldtype": "Data",
   "label": "Badge Redirect URL",
   "options": "URL"
  }
 ],
 "image_field": "logo",
 "links": [
  {
   "group": "Contracts",
   "link_doctype": "Partnership",
   "link_fieldname": "organisation"
  }
 ],
 "modified": "2022-09-27 15:41:13.871339",
 "modified_by": "Administrator",
 "module": "LEO CRM",
 "name": "Organisation",
 "name_case": "Title Case",
 "naming_rule": "Random",
 "owner": "Administrator",
 "permissions": [
  {
   "create": 1,
   "delete": 1,
   "email": 1,
   "export": 1,
   "print": 1,
   "read": 1,
   "report": 1,
   "role": "System Manager",
   "share": 1,
   "write": 1
  },
  {
   "create": 1,
   "delete": 1,
   "email": 1,
   "export": 1,
   "print": 1,
   "read": 1,
   "report": 1,
   "role": "PublicSpaces",
   "share": 1,
   "write": 1
  },
  {
   "email": 1,
   "export": 1,
   "print": 1,
   "read": 1,
   "report": 1,
   "role": "Badge API",
   "share": 1
  }
 ],
 "quick_entry": 1,
 "search_fields": "org_name",
 "show_title_field_in_link": 1,
 "sort_field": "modified",
 "sort_order": "DESC",
 "states": [],
 "title_field": "org_name",
 "track_changes": 1
}